EESchema Schematic File Version 4
EELAYER 30 0
EELAYER END
$Descr A4 11693 8268
encoding utf-8
Sheet 1 1
Title ""
Date ""
Rev ""
Comp ""
Comment1 ""
Comment2 ""
Comment3 ""
Comment4 ""
$EndDescr
$Comp
L Regulator_Switching:TLV62568DRL U1
U 1 1 5F65F3D3
P 4100 1050
F 0 "U1" H 4100 1417 50  0000 C CNN
F 1 "TLV62568DRL" H 4100 1326 50  0000 C CNN
F 2 "Package_TO_SOT_SMD:SOT-563" H 4150 800 50  0001 L CIN
F 3 "http://www.ti.com/lit/ds/symlink/tlv62568.pdf" H 3850 1500 50  0001 C CNN
F 4 "TLV62568ADRLR" H 4100 1050 50  0001 C CNN "MPN"
	1    4100 1050
	1    0    0    -1  
$EndComp
$Comp
L Device:R R1
U 1 1 5F6601EA
P 4850 1150
F 0 "R1" H 4920 1196 50  0000 L CNN
F 1 "450k" H 4920 1105 50  0000 L CNN
F 2 "Resistor_SMD:R_0603_1608Metric" V 4780 1150 50  0001 C CNN
F 3 "~" H 4850 1150 50  0001 C CNN
	1    4850 1150
	1    0    0    -1  
$EndComp
$Comp
L Device:R R6
U 1 1 5F660547
P 4850 1550
F 0 "R6" H 4920 1596 50  0000 L CNN
F 1 "100k" H 4920 1505 50  0000 L CNN
F 2 "Resistor_SMD:R_0603_1608Metric" V 4780 1550 50  0001 C CNN
F 3 "~" H 4850 1550 50  0001 C CNN
	1    4850 1550
	1    0    0    -1  
$EndComp
Wire Wire Line
	4850 1300 4850 1350
Wire Wire Line
	4850 1350 4600 1350
Connection ~ 4850 1350
Wire Wire Line
	4850 1350 4850 1400
Wire Wire Line
	4600 1350 4600 1050
Wire Wire Line
	4600 1050 4400 1050
Wire Wire Line
	4850 1000 4850 950 
$Comp
L Device:L L1
U 1 1 5F662AF6
P 4650 950
F 0 "L1" V 4840 950 50  0000 C CNN
F 1 "240nH / 2.4A" V 4749 950 50  0000 C CNN
F 2 "Inductor_SMD:L_0805_2012Metric" H 4650 950 50  0001 C CNN
F 3 "~" H 4650 950 50  0001 C CNN
F 4 "LQM21PNR24MEHD" H 4650 950 50  0001 C CNN "MPN"
	1    4650 950 
	0    -1   -1   0   
$EndComp
Wire Wire Line
	4850 950  4800 950 
Connection ~ 4850 950 
Wire Wire Line
	4500 950  4400 950 
$Comp
L power:GND #PWR08
U 1 1 5F663B7B
P 4100 1350
F 0 "#PWR08" H 4100 1100 50  0001 C CNN
F 1 "GND" H 4105 1177 50  0000 C CNN
F 2 "" H 4100 1350 50  0001 C CNN
F 3 "" H 4100 1350 50  0001 C CNN
	1    4100 1350
	1    0    0    -1  
$EndComp
$Comp
L power:GND #PWR012
U 1 1 5F663E1E
P 4850 1700
F 0 "#PWR012" H 4850 1450 50  0001 C CNN
F 1 "GND" H 4855 1527 50  0000 C CNN
F 2 "" H 4850 1700 50  0001 C CNN
F 3 "" H 4850 1700 50  0001 C CNN
	1    4850 1700
	1    0    0    -1  
$EndComp
$Comp
L Device:Battery_Cell BT1
U 1 1 5F6646AE
P 700 1100
F 0 "BT1" H 818 1196 50  0000 L CNN
F 1 "Battery_Cell" H 818 1105 50  0000 L CNN
F 2 "pcb:AA_BATTERY_CLIP" V 700 1160 50  0001 C CNN
F 3 "~" V 700 1160 50  0001 C CNN
	1    700  1100
	1    0    0    -1  
$EndComp
$Comp
L Device:Battery_Cell BT2
U 1 1 5F6657C6
P 700 1450
F 0 "BT2" H 818 1546 50  0000 L CNN
F 1 "Battery_Cell" H 818 1455 50  0000 L CNN
F 2 "pcb:AA_BATTERY_CLIP" V 700 1510 50  0001 C CNN
F 3 "~" V 700 1510 50  0001 C CNN
	1    700  1450
	1    0    0    -1  
$EndComp
$Comp
L Device:Battery_Cell BT3
U 1 1 5F665D80
P 700 1800
F 0 "BT3" H 818 1896 50  0000 L CNN
F 1 "Battery_Cell" H 818 1805 50  0000 L CNN
F 2 "pcb:AA_BATTERY_CLIP" V 700 1860 50  0001 C CNN
F 3 "~" V 700 1860 50  0001 C CNN
	1    700  1800
	1    0    0    -1  
$EndComp
Wire Wire Line
	700  1200 700  1250
Wire Wire Line
	700  1550 700  1600
$Comp
L power:GND #PWR013
U 1 1 5F666771
P 700 1900
F 0 "#PWR013" H 700 1650 50  0001 C CNN
F 1 "GND" H 705 1727 50  0000 C CNN
F 2 "" H 700 1900 50  0001 C CNN
F 3 "" H 700 1900 50  0001 C CNN
	1    700  1900
	1    0    0    -1  
$EndComp
$Comp
L power:+BATT #PWR02
U 1 1 5F666BF0
P 700 900
F 0 "#PWR02" H 700 750 50  0001 C CNN
F 1 "+BATT" H 715 1073 50  0000 C CNN
F 2 "" H 700 900 50  0001 C CNN
F 3 "" H 700 900 50  0001 C CNN
	1    700  900 
	1    0    0    -1  
$EndComp
$Comp
L Connector:USB_B_Micro J1
U 1 1 5F6671AF
P 1750 1200
F 0 "J1" H 1807 1667 50  0000 C CNN
F 1 "USB_B_Micro" H 1807 1576 50  0000 C CNN
F 2 "Connector_USB:USB_Micro-B_Amphenol_10104110_Horizontal" H 1900 1150 50  0001 C CNN
F 3 "~" H 1900 1150 50  0001 C CNN
	1    1750 1200
	1    0    0    -1  
$EndComp
$Comp
L power:GND #PWR011
U 1 1 5F66796C
P 1750 1600
F 0 "#PWR011" H 1750 1350 50  0001 C CNN
F 1 "GND" H 1755 1427 50  0000 C CNN
F 2 "" H 1750 1600 50  0001 C CNN
F 3 "" H 1750 1600 50  0001 C CNN
	1    1750 1600
	1    0    0    -1  
$EndComp
$Comp
L power:GND #PWR010
U 1 1 5F667DB2
P 1650 1600
F 0 "#PWR010" H 1650 1350 50  0001 C CNN
F 1 "GND" H 1655 1427 50  0000 C CNN
F 2 "" H 1650 1600 50  0001 C CNN
F 3 "" H 1650 1600 50  0001 C CNN
	1    1650 1600
	1    0    0    -1  
$EndComp
$Comp
L power:VBUS #PWR03
U 1 1 5F668182
P 2150 900
F 0 "#PWR03" H 2150 750 50  0001 C CNN
F 1 "VBUS" H 2165 1073 50  0000 C CNN
F 2 "" H 2150 900 50  0001 C CNN
F 3 "" H 2150 900 50  0001 C CNN
	1    2150 900 
	1    0    0    -1  
$EndComp
Wire Wire Line
	2150 900  2150 1000
Wire Wire Line
	2150 1000 2050 1000
$Comp
L power:VBUS #PWR05
U 1 1 5F674BC2
P 2600 800
F 0 "#PWR05" H 2600 650 50  0001 C CNN
F 1 "VBUS" H 2615 973 50  0000 C CNN
F 2 "" H 2600 800 50  0001 C CNN
F 3 "" H 2600 800 50  0001 C CNN
	1    2600 800 
	1    0    0    -1  
$EndComp
$Comp
L power:+BATT #PWR04
U 1 1 5F674EF3
P 2350 800
F 0 "#PWR04" H 2350 650 50  0001 C CNN
F 1 "+BATT" H 2365 973 50  0000 C CNN
F 2 "" H 2350 800 50  0001 C CNN
F 3 "" H 2350 800 50  0001 C CNN
	1    2350 800 
	1    0    0    -1  
$EndComp
Wire Wire Line
	2600 800  2600 850 
Wire Wire Line
	2600 850  2800 850 
Wire Wire Line
	2350 1050 2350 800 
Wire Wire Line
	2350 1050 2800 1050
$Comp
L Device:C C1
U 1 1 5F677A48
P 3600 1250
F 0 "C1" H 3715 1296 50  0000 L CNN
F 1 "1u" H 3715 1205 50  0000 L CNN
F 2 "Capacitor_SMD:C_0603_1608Metric" H 3638 1100 50  0001 C CNN
F 3 "~" H 3600 1250 50  0001 C CNN
	1    3600 1250
	1    0    0    -1  
$EndComp
$Comp
L Device:C C2
U 1 1 5F678CE5
P 5250 1150
F 0 "C2" H 5365 1196 50  0000 L CNN
F 1 "C" H 5365 1105 50  0000 L CNN
F 2 "Capacitor_SMD:C_0603_1608Metric" H 5288 1000 50  0001 C CNN
F 3 "~" H 5250 1150 50  0001 C CNN
	1    5250 1150
	1    0    0    -1  
$EndComp
Wire Wire Line
	3800 1050 3700 1050
Wire Wire Line
	3700 1050 3700 950 
Wire Wire Line
	3700 950  3800 950 
Wire Wire Line
	3600 1100 3600 950 
Connection ~ 3700 950 
Wire Wire Line
	3200 950  3600 950 
Connection ~ 3600 950 
Wire Wire Line
	3600 950  3700 950 
$Comp
L power:GND #PWR09
U 1 1 5F679E77
P 3600 1400
F 0 "#PWR09" H 3600 1150 50  0001 C CNN
F 1 "GND" H 3605 1227 50  0000 C CNN
F 2 "" H 3600 1400 50  0001 C CNN
F 3 "" H 3600 1400 50  0001 C CNN
	1    3600 1400
	-1   0    0    -1  
$EndComp
$Comp
L power:GND #PWR07
U 1 1 5F67A515
P 5250 1300
F 0 "#PWR07" H 5250 1050 50  0001 C CNN
F 1 "GND" H 5255 1127 50  0000 C CNN
F 2 "" H 5250 1300 50  0001 C CNN
F 3 "" H 5250 1300 50  0001 C CNN
	1    5250 1300
	-1   0    0    -1  
$EndComp
Wire Wire Line
	5250 1000 5250 950 
Wire Wire Line
	4850 950  5000 950 
$Comp
L CCS811:CCS811 U2
U 1 1 5F683E6F
P 2700 3400
F 0 "U2" H 2700 3967 50  0000 C CNN
F 1 "CCS811" H 2700 3876 50  0000 C CNN
F 2 "SON60P270X400X110-11N" H 2700 3400 50  0001 L BNN
F 3 "AMS" H 2700 3400 50  0001 L BNN
	1    2700 3400
	1    0    0    -1  
$EndComp
$Comp
L Device:R R7
U 1 1 5F686523
P 7500 2350
F 0 "R7" H 7570 2396 50  0000 L CNN
F 1 "4k7" H 7570 2305 50  0000 L CNN
F 2 "Resistor_SMD:R_0603_1608Metric" V 7430 2350 50  0001 C CNN
F 3 "~" H 7500 2350 50  0001 C CNN
	1    7500 2350
	-1   0    0    -1  
$EndComp
$Comp
L Device:R R8
U 1 1 5F68689D
P 1000 2850
F 0 "R8" H 1070 2896 50  0000 L CNN
F 1 "4k7" H 1070 2805 50  0000 L CNN
F 2 "Resistor_SMD:R_0603_1608Metric" V 930 2850 50  0001 C CNN
F 3 "~" H 1000 2850 50  0001 C CNN
	1    1000 2850
	1    0    0    -1  
$EndComp
Wire Wire Line
	2000 3500 1000 3500
Wire Wire Line
	1000 3500 1000 3000
Wire Wire Line
	1000 2700 1000 2650
$Comp
L power:+3V3 #PWR06
U 1 1 5F6886BE
P 5250 950
F 0 "#PWR06" H 5250 800 50  0001 C CNN
F 1 "+3V3" H 5265 1123 50  0000 C CNN
F 2 "" H 5250 950 50  0001 C CNN
F 3 "" H 5250 950 50  0001 C CNN
	1    5250 950 
	1    0    0    -1  
$EndComp
Connection ~ 5250 950 
$Comp
L power:+3V3 #PWR017
U 1 1 5F688AFB
P 1000 2600
F 0 "#PWR017" H 1000 2450 50  0001 C CNN
F 1 "+3V3" H 1015 2773 50  0000 C CNN
F 2 "" H 1000 2600 50  0001 C CNN
F 3 "" H 1000 2600 50  0001 C CNN
	1    1000 2600
	1    0    0    -1  
$EndComp
$Comp
L power:+3V3 #PWR014
U 1 1 5F6891B7
P 7500 1800
F 0 "#PWR014" H 7500 1650 50  0001 C CNN
F 1 "+3V3" H 7515 1973 50  0000 C CNN
F 2 "" H 7500 1800 50  0001 C CNN
F 3 "" H 7500 1800 50  0001 C CNN
	1    7500 1800
	-1   0    0    -1  
$EndComp
Wire Wire Line
	7500 1800 7500 1850
$Comp
L Device:C C4
U 1 1 5F68A0EA
P 6850 2000
F 0 "C4" H 6965 2046 50  0000 L CNN
F 1 "C" H 6965 1955 50  0000 L CNN
F 2 "Capacitor_SMD:C_0603_1608Metric" H 6888 1850 50  0001 C CNN
F 3 "~" H 6850 2000 50  0001 C CNN
	1    6850 2000
	-1   0    0    -1  
$EndComp
$Comp
L Device:C C5
U 1 1 5F68A553
P 7500 3250
F 0 "C5" H 7615 3296 50  0000 L CNN
F 1 "C" H 7615 3205 50  0000 L CNN
F 2 "Capacitor_SMD:C_0603_1608Metric" H 7538 3100 50  0001 C CNN
F 3 "~" H 7500 3250 50  0001 C CNN
	1    7500 3250
	-1   0    0    -1  
$EndComp
Connection ~ 7500 1850
Wire Wire Line
	7500 1850 7500 2200
$Comp
L power:GND #PWR015
U 1 1 5F68BE03
P 6850 2150
F 0 "#PWR015" H 6850 1900 50  0001 C CNN
F 1 "GND" H 6855 1977 50  0000 C CNN
F 2 "" H 6850 2150 50  0001 C CNN
F 3 "" H 6850 2150 50  0001 C CNN
	1    6850 2150
	-1   0    0    -1  
$EndComp
Connection ~ 6850 1850
Wire Wire Line
	7500 1850 7200 1850
$Comp
L power:GND #PWR016
U 1 1 5F68CD73
P 7500 3400
F 0 "#PWR016" H 7500 3150 50  0001 C CNN
F 1 "GND" H 7505 3227 50  0000 C CNN
F 2 "" H 7500 3400 50  0001 C CNN
F 3 "" H 7500 3400 50  0001 C CNN
	1    7500 3400
	-1   0    0    -1  
$EndComp
$Comp
L Device:R R15
U 1 1 5F690610
P 7200 6150
F 0 "R15" V 7150 6300 50  0000 C CNN
F 1 "1k" V 7200 6150 50  0000 C CNN
F 2 "Resistor_SMD:R_0603_1608Metric" V 7130 6150 50  0001 C CNN
F 3 "~" H 7200 6150 50  0001 C CNN
	1    7200 6150
	0    -1   -1   0   
$EndComp
$Comp
L power:GND #PWR020
U 1 1 5F692CF7
P 7500 6150
F 0 "#PWR020" H 7500 5900 50  0001 C CNN
F 1 "GND" V 7505 6022 50  0000 R CNN
F 2 "" H 7500 6150 50  0001 C CNN
F 3 "" H 7500 6150 50  0001 C CNN
	1    7500 6150
	0    -1   -1   0   
$EndComp
Wire Wire Line
	7500 6150 7350 6150
Wire Wire Line
	6850 5100 7400 5100
Wire Wire Line
	6850 5000 7400 5000
Text Label 7400 5100 2    50   ~ 0
I2C_SDA
Text Label 7400 5000 2    50   ~ 0
I2C_SCL
Wire Wire Line
	2000 3100 1900 3100
Wire Wire Line
	2000 3200 1600 3200
Text Label 1250 3100 0    50   ~ 0
I2C_SDA
Text Label 1250 3200 0    50   ~ 0
I2C_SCL
$Comp
L Device:R R9
U 1 1 5F69BD84
P 1600 2850
F 0 "R9" H 1670 2896 50  0000 L CNN
F 1 "4k7" H 1670 2805 50  0000 L CNN
F 2 "Resistor_SMD:R_0603_1608Metric" V 1530 2850 50  0001 C CNN
F 3 "~" H 1600 2850 50  0001 C CNN
	1    1600 2850
	1    0    0    -1  
$EndComp
$Comp
L Device:R R10
U 1 1 5F69BFCA
P 1900 2850
F 0 "R10" H 1970 2896 50  0000 L CNN
F 1 "4k7" H 1970 2805 50  0000 L CNN
F 2 "Resistor_SMD:R_0603_1608Metric" V 1830 2850 50  0001 C CNN
F 3 "~" H 1900 2850 50  0001 C CNN
	1    1900 2850
	1    0    0    -1  
$EndComp
Wire Wire Line
	1900 3000 1900 3100
Connection ~ 1900 3100
Wire Wire Line
	1900 3100 1250 3100
Wire Wire Line
	1600 3000 1600 3200
Connection ~ 1600 3200
Wire Wire Line
	1600 3200 1250 3200
Wire Wire Line
	1900 2700 1900 2650
Wire Wire Line
	1900 2650 1600 2650
Connection ~ 1000 2650
Wire Wire Line
	1000 2650 1000 2600
Wire Wire Line
	1600 2700 1600 2650
Connection ~ 1600 2650
Wire Wire Line
	1600 2650 1000 2650
$Comp
L power:GND #PWR021
U 1 1 5F69FEC4
P 2000 3400
F 0 "#PWR021" H 2000 3150 50  0001 C CNN
F 1 "GND" V 2005 3272 50  0000 R CNN
F 2 "" H 2000 3400 50  0001 C CNN
F 3 "" H 2000 3400 50  0001 C CNN
	1    2000 3400
	0    1    1    0   
$EndComp
Wire Wire Line
	5450 3200 4900 3200
Text Label 4900 3200 0    50   ~ 0
SENSOR_WAKE
Wire Wire Line
	2000 3600 1450 3600
Text Label 1450 3600 0    50   ~ 0
SENSOR_WAKE
NoConn ~ 2000 3800
$Comp
L power:+3V3 #PWR018
U 1 1 5F6A3F2C
P 3450 2650
F 0 "#PWR018" H 3450 2500 50  0001 C CNN
F 1 "+3V3" H 3465 2823 50  0000 C CNN
F 2 "" H 3450 2650 50  0001 C CNN
F 3 "" H 3450 2650 50  0001 C CNN
	1    3450 2650
	1    0    0    -1  
$EndComp
$Comp
L Device:C C3
U 1 1 5F6A4773
P 3600 2850
F 0 "C3" H 3715 2896 50  0000 L CNN
F 1 "C" H 3715 2805 50  0000 L CNN
F 2 "Capacitor_SMD:C_0603_1608Metric" H 3638 2700 50  0001 C CNN
F 3 "~" H 3600 2850 50  0001 C CNN
	1    3600 2850
	1    0    0    -1  
$EndComp
$Comp
L power:GND #PWR019
U 1 1 5F6A4BE4
P 3600 3000
F 0 "#PWR019" H 3600 2750 50  0001 C CNN
F 1 "GND" H 3605 2827 50  0000 C CNN
F 2 "" H 3600 3000 50  0001 C CNN
F 3 "" H 3600 3000 50  0001 C CNN
	1    3600 3000
	-1   0    0    -1  
$EndComp
Wire Wire Line
	3600 2700 3600 2650
Wire Wire Line
	3600 2650 3450 2650
Wire Wire Line
	3450 2650 3450 3100
Wire Wire Line
	3450 3100 3400 3100
Connection ~ 3450 2650
Wire Wire Line
	5450 3300 4900 3300
Text Label 4900 3300 0    50   ~ 0
SENSOR_INT
Wire Wire Line
	3400 3300 3950 3300
Text Label 3950 3300 2    50   ~ 0
SENSOR_INT
Wire Wire Line
	3400 3500 3450 3500
Wire Wire Line
	3450 3500 3450 3600
Wire Wire Line
	3450 3600 3400 3600
$Comp
L power:GND #PWR022
U 1 1 5F6AD7CD
P 3450 3850
F 0 "#PWR022" H 3450 3600 50  0001 C CNN
F 1 "GND" H 3455 3677 50  0000 C CNN
F 2 "" H 3450 3850 50  0001 C CNN
F 3 "" H 3450 3850 50  0001 C CNN
	1    3450 3850
	-1   0    0    -1  
$EndComp
Wire Wire Line
	3450 3850 3450 3800
Wire Wire Line
	3450 3800 3400 3800
$Comp
L power:GND #PWR023
U 1 1 5F6B3246
P 5400 5650
F 0 "#PWR023" H 5400 5400 50  0001 C CNN
F 1 "GND" H 5405 5477 50  0000 C CNN
F 2 "" H 5400 5650 50  0001 C CNN
F 3 "" H 5400 5650 50  0001 C CNN
	1    5400 5650
	1    0    0    -1  
$EndComp
Wire Wire Line
	5400 5650 5400 5600
$Comp
L Transistor_BJT:BC807 Q1
U 1 1 5F6C8212
P 8400 1150
F 0 "Q1" H 8591 1104 50  0000 L CNN
F 1 "BC807" H 8591 1195 50  0000 L CNN
F 2 "Package_TO_SOT_SMD:SOT-23" H 8600 1075 50  0001 L CIN
F 3 "http://www.fairchildsemi.com/ds/BC/BC807.pdf" H 8400 1150 50  0001 L CNN
	1    8400 1150
	1    0    0    1   
$EndComp
$Comp
L Transistor_BJT:BC807 Q2
U 1 1 5F6C9BF9
P 9100 1150
F 0 "Q2" H 9291 1104 50  0000 L CNN
F 1 "BC807" H 9291 1195 50  0000 L CNN
F 2 "Package_TO_SOT_SMD:SOT-23" H 9300 1075 50  0001 L CIN
F 3 "http://www.fairchildsemi.com/ds/BC/BC807.pdf" H 9100 1150 50  0001 L CNN
	1    9100 1150
	1    0    0    1   
$EndComp
$Comp
L Transistor_BJT:BC807 Q4
U 1 1 5F6CAFC9
P 10500 1150
F 0 "Q4" H 10691 1104 50  0000 L CNN
F 1 "BC807" H 10691 1195 50  0000 L CNN
F 2 "Package_TO_SOT_SMD:SOT-23" H 10700 1075 50  0001 L CIN
F 3 "http://www.fairchildsemi.com/ds/BC/BC807.pdf" H 10500 1150 50  0001 L CNN
	1    10500 1150
	1    0    0    1   
$EndComp
$Comp
L Transistor_BJT:BC807 Q5
U 1 1 5F6CE9E8
P 8400 2700
F 0 "Q5" H 8591 2654 50  0000 L CNN
F 1 "BC807" H 8591 2745 50  0000 L CNN
F 2 "Package_TO_SOT_SMD:SOT-23" H 8600 2625 50  0001 L CIN
F 3 "http://www.fairchildsemi.com/ds/BC/BC807.pdf" H 8400 2700 50  0001 L CNN
	1    8400 2700
	1    0    0    1   
$EndComp
$Comp
L Transistor_BJT:BC807 Q6
U 1 1 5F6CE9F2
P 9100 2700
F 0 "Q6" H 9291 2654 50  0000 L CNN
F 1 "BC807" H 9291 2745 50  0000 L CNN
F 2 "Package_TO_SOT_SMD:SOT-23" H 9300 2625 50  0001 L CIN
F 3 "http://www.fairchildsemi.com/ds/BC/BC807.pdf" H 9100 2700 50  0001 L CNN
	1    9100 2700
	1    0    0    1   
$EndComp
$Comp
L Transistor_BJT:BC807 Q7
U 1 1 5F6CE9FC
P 9800 2700
F 0 "Q7" H 9991 2654 50  0000 L CNN
F 1 "BC807" H 9991 2745 50  0000 L CNN
F 2 "Package_TO_SOT_SMD:SOT-23" H 10000 2625 50  0001 L CIN
F 3 "http://www.fairchildsemi.com/ds/BC/BC807.pdf" H 9800 2700 50  0001 L CNN
	1    9800 2700
	1    0    0    1   
$EndComp
$Comp
L Transistor_BJT:BC807 Q8
U 1 1 5F6CEA06
P 10500 2700
F 0 "Q8" H 10691 2654 50  0000 L CNN
F 1 "BC807" H 10691 2745 50  0000 L CNN
F 2 "Package_TO_SOT_SMD:SOT-23" H 10700 2625 50  0001 L CIN
F 3 "http://www.fairchildsemi.com/ds/BC/BC807.pdf" H 10500 2700 50  0001 L CNN
	1    10500 2700
	1    0    0    1   
$EndComp
$Comp
L power:+3V3 #PWR01
U 1 1 5F6DCBC4
P 8500 850
F 0 "#PWR01" H 8500 700 50  0001 C CNN
F 1 "+3V3" H 8515 1023 50  0000 C CNN
F 2 "" H 8500 850 50  0001 C CNN
F 3 "" H 8500 850 50  0001 C CNN
	1    8500 850 
	1    0    0    -1  
$EndComp
Wire Wire Line
	8500 850  8500 900 
Wire Wire Line
	8500 900  9200 900 
Connection ~ 8500 900 
Wire Wire Line
	8500 900  8500 950 
Connection ~ 9200 900 
Wire Wire Line
	9200 900  9200 950 
Wire Wire Line
	10600 900  10600 950 
Wire Wire Line
	8500 2450 8500 2500
Wire Wire Line
	8500 2450 9200 2450
Wire Wire Line
	9200 2450 9200 2500
Wire Wire Line
	9200 2450 9900 2450
Wire Wire Line
	9900 2450 9900 2500
Connection ~ 9200 2450
Wire Wire Line
	9900 2450 10600 2450
Wire Wire Line
	10600 2450 10600 2500
Connection ~ 9900 2450
Connection ~ 9900 900 
Wire Wire Line
	9900 900  10600 900 
Wire Wire Line
	9200 900  9900 900 
Wire Wire Line
	9900 900  9900 950 
$Comp
L Transistor_BJT:BC807 Q3
U 1 1 5F6CA645
P 9800 1150
F 0 "Q3" H 9991 1104 50  0000 L CNN
F 1 "BC807" H 9991 1195 50  0000 L CNN
F 2 "Package_TO_SOT_SMD:SOT-23" H 10000 1075 50  0001 L CIN
F 3 "http://www.fairchildsemi.com/ds/BC/BC807.pdf" H 9800 1150 50  0001 L CNN
	1    9800 1150
	1    0    0    1   
$EndComp
Wire Wire Line
	10600 2450 11000 2450
Wire Wire Line
	11000 2450 11000 900 
Wire Wire Line
	11000 900  10600 900 
Connection ~ 10600 2450
Connection ~ 10600 900 
Wire Wire Line
	3300 5200 3850 5200
Wire Wire Line
	3300 5300 3850 5300
Wire Wire Line
	3300 5400 3850 5400
Wire Wire Line
	3300 5500 3850 5500
Wire Wire Line
	3300 6400 3850 6400
Wire Wire Line
	3300 6500 3850 6500
Wire Wire Line
	3300 6600 3850 6600
Wire Wire Line
	3300 6700 3850 6700
Wire Wire Line
	3300 6300 3850 6300
Wire Wire Line
	3300 6200 3850 6200
Wire Wire Line
	3300 6100 3850 6100
Wire Wire Line
	3300 6000 3850 6000
Wire Wire Line
	3300 5900 3850 5900
Wire Wire Line
	3300 5800 3850 5800
Wire Wire Line
	3300 5700 3850 5700
Wire Wire Line
	3300 5600 3850 5600
$Comp
L Connector_Generic:Conn_02x16_Top_Bottom J2
U 1 1 5F6BC1CB
P 3000 5900
F 0 "J2" H 3050 6817 50  0000 C CNN
F 1 "LED MATRIX" H 3050 6726 50  0000 C CNN
F 2 "pcb:LED_MATRIX" H 3000 5900 50  0001 C CNN
F 3 "~" H 3000 5900 50  0001 C CNN
	1    3000 5900
	1    0    0    -1  
$EndComp
Wire Wire Line
	2250 5900 2800 5900
Wire Wire Line
	2800 5800 2250 5800
Wire Wire Line
	2800 5700 2250 5700
Wire Wire Line
	2800 5600 2250 5600
Wire Wire Line
	2800 5500 2250 5500
Wire Wire Line
	2800 5400 2250 5400
Wire Wire Line
	2800 5300 2250 5300
Wire Wire Line
	2800 5200 2250 5200
Text Label 3850 5200 2    50   ~ 0
ANODE_0
Text Label 3850 5300 2    50   ~ 0
ANODE_1
Text Label 3850 5400 2    50   ~ 0
ANODE_2
Text Label 3850 5500 2    50   ~ 0
ANODE_3
Text Label 3850 6400 2    50   ~ 0
ANODE_4
Text Label 3850 6500 2    50   ~ 0
ANODE_5
Text Label 3850 6600 2    50   ~ 0
ANODE_6
Text Label 3850 6700 2    50   ~ 0
ANODE_7
Text Label 3850 6300 2    50   ~ 0
CATHODE_G0
Text Label 3850 6200 2    50   ~ 0
CATHODE_G1
Text Label 3850 6100 2    50   ~ 0
CATHODE_G2
Text Label 3850 6000 2    50   ~ 0
CATHODE_G3
Text Label 3850 5900 2    50   ~ 0
CATHODE_G4
Text Label 3850 5800 2    50   ~ 0
CATHODE_G5
Text Label 3850 5700 2    50   ~ 0
CATHODE_G6
Text Label 3850 5600 2    50   ~ 0
CATHODE_G7
Text Label 2250 5900 0    50   ~ 0
CATHODE_B0
Text Label 2250 5800 0    50   ~ 0
CATHODE_B1
Text Label 2250 5700 0    50   ~ 0
CATHODE_B2
Text Label 2250 5600 0    50   ~ 0
CATHODE_B3
Text Label 2250 5500 0    50   ~ 0
CATHODE_B4
Text Label 2250 5400 0    50   ~ 0
CATHODE_B5
Text Label 2250 5300 0    50   ~ 0
CATHODE_B6
Text Label 2250 5200 0    50   ~ 0
CATHODE_B7
Text Label 2250 6000 0    50   ~ 0
CATHODE_R7
Text Label 2250 6100 0    50   ~ 0
CATHODE_R6
Text Label 2250 6200 0    50   ~ 0
CATHODE_R5
Text Label 2250 6300 0    50   ~ 0
CATHODE_R4
Text Label 2250 6400 0    50   ~ 0
CATHODE_R3
Text Label 2250 6500 0    50   ~ 0
CATHODE_R2
Text Label 2250 6600 0    50   ~ 0
CATHODE_R1
Text Label 2250 6700 0    50   ~ 0
CATHODE_R0
Wire Wire Line
	2800 6000 2250 6000
Wire Wire Line
	2800 6100 2250 6100
Wire Wire Line
	2800 6200 2250 6200
Wire Wire Line
	2800 6300 2250 6300
Wire Wire Line
	2800 6400 2250 6400
Wire Wire Line
	2800 6500 2250 6500
Wire Wire Line
	2800 6600 2250 6600
Wire Wire Line
	2800 6700 2250 6700
Wire Wire Line
	8500 1350 8500 1900
Wire Wire Line
	9200 1350 9200 1900
Wire Wire Line
	9900 1350 9900 1900
Wire Wire Line
	10600 1350 10600 1900
Text Label 8500 1900 1    50   ~ 0
ANODE_0
Text Label 9200 1900 1    50   ~ 0
ANODE_1
Text Label 9900 1900 1    50   ~ 0
ANODE_2
Text Label 10600 1900 1    50   ~ 0
ANODE_3
Wire Wire Line
	8500 2900 8500 3450
Wire Wire Line
	9200 2900 9200 3450
Wire Wire Line
	9900 2900 9900 3450
Wire Wire Line
	10600 2900 10600 3450
Text Label 8500 3450 1    50   ~ 0
ANODE_4
Text Label 9200 3450 1    50   ~ 0
ANODE_5
Text Label 9900 3450 1    50   ~ 0
ANODE_6
Text Label 10600 3450 1    50   ~ 0
ANODE_7
Wire Wire Line
	5450 2700 4800 2700
Wire Wire Line
	5450 2800 4800 2800
Wire Wire Line
	5450 2900 4800 2900
Wire Wire Line
	5450 3000 4800 3000
Text Label 4800 2800 0    50   ~ 0
PORT_ANODE_1
Text Label 4800 2900 0    50   ~ 0
PORT_ANODE_2
Text Label 4800 3000 0    50   ~ 0
PORT_ANODE_3
Text Label 7800 4700 2    50   ~ 0
PORT_ANODE_4
Text Label 7800 4800 2    50   ~ 0
PORT_ANODE_5
Text Label 7800 4900 2    50   ~ 0
PORT_ANODE_6
Text Label 7800 5400 2    50   ~ 0
PORT_ANODE_7
Text Label 4800 2700 0    50   ~ 0
PORT_ANODE_0
$Comp
L Device:R R2
U 1 1 5F95420F
P 8200 1400
F 0 "R2" H 8270 1446 50  0000 L CNN
F 1 "100" H 8270 1355 50  0000 L CNN
F 2 "Resistor_SMD:R_0603_1608Metric" V 8130 1400 50  0001 C CNN
F 3 "~" H 8200 1400 50  0001 C CNN
	1    8200 1400
	1    0    0    -1  
$EndComp
Wire Wire Line
	8200 1250 8200 1150
Wire Wire Line
	8200 1550 8200 2200
Text Label 8200 2200 1    50   ~ 0
PORT_ANODE_0
$Comp
L Device:R R3
U 1 1 5F975A5E
P 8900 1400
F 0 "R3" H 8970 1446 50  0000 L CNN
F 1 "100" H 8970 1355 50  0000 L CNN
F 2 "Resistor_SMD:R_0603_1608Metric" V 8830 1400 50  0001 C CNN
F 3 "~" H 8900 1400 50  0001 C CNN
	1    8900 1400
	1    0    0    -1  
$EndComp
Wire Wire Line
	8900 1250 8900 1150
Wire Wire Line
	8900 1550 8900 2200
Text Label 8900 2200 1    50   ~ 0
PORT_ANODE_1
$Comp
L Device:R R4
U 1 1 5F9833F3
P 9600 1400
F 0 "R4" H 9670 1446 50  0000 L CNN
F 1 "100" H 9670 1355 50  0000 L CNN
F 2 "Resistor_SMD:R_0603_1608Metric" V 9530 1400 50  0001 C CNN
F 3 "~" H 9600 1400 50  0001 C CNN
	1    9600 1400
	1    0    0    -1  
$EndComp
Wire Wire Line
	9600 1250 9600 1150
Wire Wire Line
	9600 1550 9600 2200
Text Label 9600 2200 1    50   ~ 0
PORT_ANODE_2
$Comp
L Device:R R5
U 1 1 5F989CD2
P 10300 1400
F 0 "R5" H 10370 1446 50  0000 L CNN
F 1 "100" H 10370 1355 50  0000 L CNN
F 2 "Resistor_SMD:R_0603_1608Metric" V 10230 1400 50  0001 C CNN
F 3 "~" H 10300 1400 50  0001 C CNN
	1    10300 1400
	1    0    0    -1  
$EndComp
Wire Wire Line
	10300 1250 10300 1150
Wire Wire Line
	10300 1550 10300 2200
Text Label 10300 2200 1    50   ~ 0
PORT_ANODE_3
$Comp
L Device:R R11
U 1 1 5F99058A
P 8200 2950
F 0 "R11" H 8270 2996 50  0000 L CNN
F 1 "100" H 8270 2905 50  0000 L CNN
F 2 "Resistor_SMD:R_0603_1608Metric" V 8130 2950 50  0001 C CNN
F 3 "~" H 8200 2950 50  0001 C CNN
	1    8200 2950
	1    0    0    -1  
$EndComp
Wire Wire Line
	8200 2800 8200 2700
Wire Wire Line
	8200 3100 8200 3750
Text Label 8200 3750 1    50   ~ 0
PORT_ANODE_4
$Comp
L Device:R R12
U 1 1 5F9970C1
P 8900 2950
F 0 "R12" H 8970 2996 50  0000 L CNN
F 1 "100" H 8970 2905 50  0000 L CNN
F 2 "Resistor_SMD:R_0603_1608Metric" V 8830 2950 50  0001 C CNN
F 3 "~" H 8900 2950 50  0001 C CNN
	1    8900 2950
	1    0    0    -1  
$EndComp
Wire Wire Line
	8900 2800 8900 2700
Wire Wire Line
	8900 3100 8900 3750
$Comp
L Device:R R13
U 1 1 5F99DE09
P 9600 2950
F 0 "R13" H 9670 2996 50  0000 L CNN
F 1 "100" H 9670 2905 50  0000 L CNN
F 2 "Resistor_SMD:R_0603_1608Metric" V 9530 2950 50  0001 C CNN
F 3 "~" H 9600 2950 50  0001 C CNN
	1    9600 2950
	1    0    0    -1  
$EndComp
Wire Wire Line
	9600 2800 9600 2700
Wire Wire Line
	9600 3100 9600 3750
Text Label 9600 3750 1    50   ~ 0
PORT_ANODE_6
$Comp
L Device:R R14
U 1 1 5F9A4D3A
P 10300 2950
F 0 "R14" H 10370 2996 50  0000 L CNN
F 1 "100" H 10370 2905 50  0000 L CNN
F 2 "Resistor_SMD:R_0603_1608Metric" V 10230 2950 50  0001 C CNN
F 3 "~" H 10300 2950 50  0001 C CNN
	1    10300 2950
	1    0    0    -1  
$EndComp
Wire Wire Line
	10300 2800 10300 2700
Wire Wire Line
	10300 3100 10300 3750
Text Label 10300 3750 1    50   ~ 0
PORT_ANODE_7
Text Label 8900 3750 1    50   ~ 0
PORT_ANODE_5
Wire Wire Line
	5050 3900 4500 3900
Wire Wire Line
	5050 4000 4500 4000
Wire Wire Line
	5050 4100 4500 4100
Wire Wire Line
	5050 4200 4500 4200
Wire Wire Line
	5050 4300 4500 4300
Wire Wire Line
	5050 4400 4500 4400
Wire Wire Line
	5050 4500 4500 4500
Wire Wire Line
	5050 4600 4500 4600
Text Label 4500 3900 0    50   ~ 0
CATHODE_G0
Text Label 4500 4000 0    50   ~ 0
CATHODE_G1
Text Label 4500 4100 0    50   ~ 0
CATHODE_G2
Text Label 4500 4200 0    50   ~ 0
CATHODE_G3
Text Label 4500 4300 0    50   ~ 0
CATHODE_G4
Text Label 4500 4400 0    50   ~ 0
CATHODE_G5
Text Label 4500 4500 0    50   ~ 0
CATHODE_G6
Text Label 4500 4600 0    50   ~ 0
CATHODE_G7
$Comp
L Device:R R24
U 1 1 5F9CB577
P 5150 4700
F 0 "R24" V 5100 4850 50  0000 C CNN
F 1 "70R" V 5150 4700 50  0000 C CNN
F 2 "Resistor_SMD:R_0603_1608Metric" V 5080 4700 50  0001 C CNN
F 3 "~" H 5150 4700 50  0001 C CNN
	1    5150 4700
	0    1    1    0   
$EndComp
$Comp
L Device:R R26
U 1 1 5F9CBBE4
P 5150 4800
F 0 "R26" V 5100 4950 50  0000 C CNN
F 1 "70R" V 5150 4800 50  0000 C CNN
F 2 "Resistor_SMD:R_0603_1608Metric" V 5080 4800 50  0001 C CNN
F 3 "~" H 5150 4800 50  0001 C CNN
	1    5150 4800
	0    1    1    0   
$EndComp
$Comp
L Device:R R28
U 1 1 5F9CBC72
P 5150 4900
F 0 "R28" V 5100 5050 50  0000 C CNN
F 1 "70R" V 5150 4900 50  0000 C CNN
F 2 "Resistor_SMD:R_0603_1608Metric" V 5080 4900 50  0001 C CNN
F 3 "~" H 5150 4900 50  0001 C CNN
	1    5150 4900
	0    1    1    0   
$EndComp
$Comp
L Device:R R30
U 1 1 5F9CBD00
P 5150 5000
F 0 "R30" V 5100 5150 50  0000 C CNN
F 1 "70R" V 5150 5000 50  0000 C CNN
F 2 "Resistor_SMD:R_0603_1608Metric" V 5080 5000 50  0001 C CNN
F 3 "~" H 5150 5000 50  0001 C CNN
	1    5150 5000
	0    1    1    0   
$EndComp
$Comp
L Device:R R32
U 1 1 5F9CBD8E
P 5150 5100
F 0 "R32" V 5100 5250 50  0000 C CNN
F 1 "70R" V 5150 5100 50  0000 C CNN
F 2 "Resistor_SMD:R_0603_1608Metric" V 5080 5100 50  0001 C CNN
F 3 "~" H 5150 5100 50  0001 C CNN
	1    5150 5100
	0    1    1    0   
$EndComp
$Comp
L Device:R R34
U 1 1 5F9CBE1C
P 5150 5200
F 0 "R34" V 5100 5350 50  0000 C CNN
F 1 "70R" V 5150 5200 50  0000 C CNN
F 2 "Resistor_SMD:R_0603_1608Metric" V 5080 5200 50  0001 C CNN
F 3 "~" H 5150 5200 50  0001 C CNN
	1    5150 5200
	0    1    1    0   
$EndComp
$Comp
L Device:R R36
U 1 1 5F9CBEAA
P 5150 5300
F 0 "R36" V 5100 5450 50  0000 C CNN
F 1 "70R" V 5150 5300 50  0000 C CNN
F 2 "Resistor_SMD:R_0603_1608Metric" V 5080 5300 50  0001 C CNN
F 3 "~" H 5150 5300 50  0001 C CNN
	1    5150 5300
	0    1    1    0   
$EndComp
$Comp
L Device:R R38
U 1 1 5F9CBF38
P 5150 5400
F 0 "R38" V 5100 5550 50  0000 C CNN
F 1 "70R" V 5150 5400 50  0000 C CNN
F 2 "Resistor_SMD:R_0603_1608Metric" V 5080 5400 50  0001 C CNN
F 3 "~" H 5150 5400 50  0001 C CNN
	1    5150 5400
	0    1    1    0   
$EndComp
Wire Wire Line
	5300 4700 5450 4700
Wire Wire Line
	5300 4800 5450 4800
Wire Wire Line
	5300 4900 5450 4900
Wire Wire Line
	5300 5000 5450 5000
Wire Wire Line
	5300 5100 5450 5100
Wire Wire Line
	5300 5200 5450 5200
Wire Wire Line
	5300 5300 5450 5300
Wire Wire Line
	5300 5400 5450 5400
Text Label 4450 4700 0    50   ~ 0
CATHODE_R7
Text Label 4450 4800 0    50   ~ 0
CATHODE_R6
Text Label 4450 4900 0    50   ~ 0
CATHODE_R5
Text Label 4450 5000 0    50   ~ 0
CATHODE_R4
Text Label 4450 5100 0    50   ~ 0
CATHODE_R3
Text Label 4450 5200 0    50   ~ 0
CATHODE_R2
Text Label 4450 5300 0    50   ~ 0
CATHODE_R1
Text Label 4450 5400 0    50   ~ 0
CATHODE_R0
Wire Wire Line
	5000 4700 4450 4700
Wire Wire Line
	5000 4800 4450 4800
Wire Wire Line
	5000 4900 4450 4900
Wire Wire Line
	5000 5000 4450 5000
Wire Wire Line
	5000 5100 4450 5100
Wire Wire Line
	5000 5200 4450 5200
Wire Wire Line
	5000 5300 4450 5300
Wire Wire Line
	5000 5400 4450 5400
$Comp
L Device:R R25
U 1 1 5FA2B619
P 5200 3900
F 0 "R25" V 5150 4050 50  0000 C CNN
F 1 "10R" V 5200 3900 50  0000 C CNN
F 2 "Resistor_SMD:R_0603_1608Metric" V 5130 3900 50  0001 C CNN
F 3 "~" H 5200 3900 50  0001 C CNN
	1    5200 3900
	0    -1   1    0   
$EndComp
Wire Wire Line
	5450 3900 5350 3900
$Comp
L Device:R R27
U 1 1 5FA358C9
P 5200 4000
F 0 "R27" V 5150 4150 50  0000 C CNN
F 1 "10R" V 5200 4000 50  0000 C CNN
F 2 "Resistor_SMD:R_0603_1608Metric" V 5130 4000 50  0001 C CNN
F 3 "~" H 5200 4000 50  0001 C CNN
	1    5200 4000
	0    -1   1    0   
$EndComp
Wire Wire Line
	5450 4000 5350 4000
$Comp
L Device:R R29
U 1 1 5FA3F9E5
P 5200 4100
F 0 "R29" V 5150 4250 50  0000 C CNN
F 1 "10R" V 5200 4100 50  0000 C CNN
F 2 "Resistor_SMD:R_0603_1608Metric" V 5130 4100 50  0001 C CNN
F 3 "~" H 5200 4100 50  0001 C CNN
	1    5200 4100
	0    -1   1    0   
$EndComp
Wire Wire Line
	5450 4100 5350 4100
$Comp
L Device:R R31
U 1 1 5FA3F9F0
P 5200 4200
F 0 "R31" V 5150 4350 50  0000 C CNN
F 1 "10R" V 5200 4200 50  0000 C CNN
F 2 "Resistor_SMD:R_0603_1608Metric" V 5130 4200 50  0001 C CNN
F 3 "~" H 5200 4200 50  0001 C CNN
	1    5200 4200
	0    -1   1    0   
$EndComp
Wire Wire Line
	5450 4200 5350 4200
$Comp
L Device:R R33
U 1 1 5FA4A293
P 5200 4300
F 0 "R33" V 5150 4450 50  0000 C CNN
F 1 "10R" V 5200 4300 50  0000 C CNN
F 2 "Resistor_SMD:R_0603_1608Metric" V 5130 4300 50  0001 C CNN
F 3 "~" H 5200 4300 50  0001 C CNN
	1    5200 4300
	0    -1   1    0   
$EndComp
Wire Wire Line
	5450 4300 5350 4300
$Comp
L Device:R R35
U 1 1 5FA4A29E
P 5200 4400
F 0 "R35" V 5150 4550 50  0000 C CNN
F 1 "10R" V 5200 4400 50  0000 C CNN
F 2 "Resistor_SMD:R_0603_1608Metric" V 5130 4400 50  0001 C CNN
F 3 "~" H 5200 4400 50  0001 C CNN
	1    5200 4400
	0    -1   1    0   
$EndComp
$Comp
L Device:R R37
U 1 1 5FA4A2A9
P 5200 4500
F 0 "R37" V 5150 4650 50  0000 C CNN
F 1 "10R" V 5200 4500 50  0000 C CNN
F 2 "Resistor_SMD:R_0603_1608Metric" V 5130 4500 50  0001 C CNN
F 3 "~" H 5200 4500 50  0001 C CNN
	1    5200 4500
	0    -1   1    0   
$EndComp
Wire Wire Line
	5450 4500 5350 4500
$Comp
L Device:R R39
U 1 1 5FA4A2B4
P 5200 4600
F 0 "R39" V 5150 4750 50  0000 C CNN
F 1 "10R" V 5200 4600 50  0000 C CNN
F 2 "Resistor_SMD:R_0603_1608Metric" V 5130 4600 50  0001 C CNN
F 3 "~" H 5200 4600 50  0001 C CNN
	1    5200 4600
	0    -1   1    0   
$EndComp
Wire Wire Line
	5450 4600 5350 4600
$Comp
L Device:R R23
U 1 1 5FA5FE65
P 7150 4600
F 0 "R23" V 7100 4750 50  0000 C CNN
F 1 "14R" V 7150 4600 50  0000 C CNN
F 2 "Resistor_SMD:R_0603_1608Metric" V 7080 4600 50  0001 C CNN
F 3 "~" H 7150 4600 50  0001 C CNN
	1    7150 4600
	0    -1   1    0   
$EndComp
$Comp
L Device:R R22
U 1 1 5FA611E7
P 7150 4500
F 0 "R22" V 7100 4650 50  0000 C CNN
F 1 "14R" V 7150 4500 50  0000 C CNN
F 2 "Resistor_SMD:R_0603_1608Metric" V 7080 4500 50  0001 C CNN
F 3 "~" H 7150 4500 50  0001 C CNN
	1    7150 4500
	0    -1   1    0   
$EndComp
$Comp
L Device:R R21
U 1 1 5FA613A3
P 7150 4400
F 0 "R21" V 7100 4550 50  0000 C CNN
F 1 "14R" V 7150 4400 50  0000 C CNN
F 2 "Resistor_SMD:R_0603_1608Metric" V 7080 4400 50  0001 C CNN
F 3 "~" H 7150 4400 50  0001 C CNN
	1    7150 4400
	0    -1   1    0   
$EndComp
$Comp
L Device:R R20
U 1 1 5FA61564
P 7150 4300
F 0 "R20" V 7100 4450 50  0000 C CNN
F 1 "14R" V 7150 4300 50  0000 C CNN
F 2 "Resistor_SMD:R_0603_1608Metric" V 7080 4300 50  0001 C CNN
F 3 "~" H 7150 4300 50  0001 C CNN
	1    7150 4300
	0    -1   1    0   
$EndComp
$Comp
L Device:R R19
U 1 1 5FA6175F
P 7150 4200
F 0 "R19" V 7100 4350 50  0000 C CNN
F 1 "14R" V 7150 4200 50  0000 C CNN
F 2 "Resistor_SMD:R_0603_1608Metric" V 7080 4200 50  0001 C CNN
F 3 "~" H 7150 4200 50  0001 C CNN
	1    7150 4200
	0    -1   1    0   
$EndComp
$Comp
L Device:R R18
U 1 1 5FA61965
P 7150 4100
F 0 "R18" V 7100 4250 50  0000 C CNN
F 1 "14R" V 7150 4100 50  0000 C CNN
F 2 "Resistor_SMD:R_0603_1608Metric" V 7080 4100 50  0001 C CNN
F 3 "~" H 7150 4100 50  0001 C CNN
	1    7150 4100
	0    -1   1    0   
$EndComp
$Comp
L Device:R R17
U 1 1 5FA61DBE
P 7150 4000
F 0 "R17" V 7100 4150 50  0000 C CNN
F 1 "14R" V 7150 4000 50  0000 C CNN
F 2 "Resistor_SMD:R_0603_1608Metric" V 7080 4000 50  0001 C CNN
F 3 "~" H 7150 4000 50  0001 C CNN
	1    7150 4000
	0    -1   1    0   
$EndComp
$Comp
L Device:R R16
U 1 1 5FA61ECE
P 7150 3900
F 0 "R16" V 7100 4050 50  0000 C CNN
F 1 "14R" V 7150 3900 50  0000 C CNN
F 2 "Resistor_SMD:R_0603_1608Metric" V 7080 3900 50  0001 C CNN
F 3 "~" H 7150 3900 50  0001 C CNN
	1    7150 3900
	0    -1   1    0   
$EndComp
Wire Wire Line
	7000 3900 6850 3900
Wire Wire Line
	7000 4000 6850 4000
Wire Wire Line
	7000 4100 6850 4100
Wire Wire Line
	7000 4200 6850 4200
Wire Wire Line
	7000 4300 6850 4300
Wire Wire Line
	7000 4400 6850 4400
Wire Wire Line
	7000 4500 6850 4500
Wire Wire Line
	7000 4600 6850 4600
Wire Wire Line
	7850 4600 7300 4600
Wire Wire Line
	7300 4500 7850 4500
Wire Wire Line
	7300 4400 7850 4400
Wire Wire Line
	7300 4300 7850 4300
Wire Wire Line
	7300 4200 7850 4200
Wire Wire Line
	7300 4100 7850 4100
Wire Wire Line
	7300 4000 7850 4000
Wire Wire Line
	7300 3900 7850 3900
Text Label 7850 4600 2    50   ~ 0
CATHODE_B0
Text Label 7850 4500 2    50   ~ 0
CATHODE_B1
Text Label 7850 4400 2    50   ~ 0
CATHODE_B2
Text Label 7850 4300 2    50   ~ 0
CATHODE_B3
Text Label 7850 4200 2    50   ~ 0
CATHODE_B4
Text Label 7850 4100 2    50   ~ 0
CATHODE_B5
Text Label 7850 4000 2    50   ~ 0
CATHODE_B6
Text Label 7850 3900 2    50   ~ 0
CATHODE_B7
$Comp
L Device:LED D3
U 1 1 5FB07301
P 4350 2550
F 0 "D3" V 4389 2432 50  0000 R CNN
F 1 "STATUS" V 4298 2432 50  0000 R CNN
F 2 "LED_SMD:LED_0805_2012Metric" H 4350 2550 50  0001 C CNN
F 3 "~" H 4350 2550 50  0001 C CNN
	1    4350 2550
	0    -1   -1   0   
$EndComp
Wire Wire Line
	4350 2700 4350 3000
Wire Wire Line
	4350 2400 4350 2050
$Comp
L power:PWR_FLAG #FLG0101
U 1 1 5FB2324D
P 5000 900
F 0 "#FLG0101" H 5000 975 50  0001 C CNN
F 1 "PWR_FLAG" H 5000 1073 50  0000 C CNN
F 2 "" H 5000 900 50  0001 C CNN
F 3 "~" H 5000 900 50  0001 C CNN
	1    5000 900 
	1    0    0    -1  
$EndComp
Wire Wire Line
	5000 900  5000 950 
Connection ~ 5000 950 
Wire Wire Line
	5000 950  5250 950 
$Comp
L power:PWR_FLAG #FLG0102
U 1 1 5FB31196
P 3600 950
F 0 "#FLG0102" H 3600 1025 50  0001 C CNN
F 1 "PWR_FLAG" H 3600 1123 50  0000 C CNN
F 2 "" H 3600 950 50  0001 C CNN
F 3 "~" H 3600 950 50  0001 C CNN
	1    3600 950 
	1    0    0    -1  
$EndComp
$Comp
L Device:R R40
U 1 1 5FB31FBE
P 4350 3150
F 0 "R40" H 4420 3196 50  0000 L CNN
F 1 "100" H 4420 3105 50  0000 L CNN
F 2 "Resistor_SMD:R_0603_1608Metric" V 4280 3150 50  0001 C CNN
F 3 "~" H 4350 3150 50  0001 C CNN
	1    4350 3150
	1    0    0    -1  
$EndComp
Wire Wire Line
	4350 3300 4350 3500
$Comp
L power:PWR_FLAG #FLG0103
U 1 1 5FB44EB1
P 700 900
F 0 "#FLG0103" H 700 975 50  0001 C CNN
F 1 "PWR_FLAG" V 700 1028 50  0000 L CNN
F 2 "" H 700 900 50  0001 C CNN
F 3 "~" H 700 900 50  0001 C CNN
	1    700  900 
	0    1    1    0   
$EndComp
Connection ~ 700  900 
Wire Wire Line
	2050 1200 2300 1200
Wire Wire Line
	2300 1200 2300 1650
Wire Wire Line
	2300 1650 3200 1650
Wire Wire Line
	2050 1300 2200 1300
Wire Wire Line
	2200 1300 2200 1750
Wire Wire Line
	2200 1750 3200 1750
Wire Wire Line
	2100 1400 2100 1850
Wire Wire Line
	2100 1850 3200 1850
Wire Wire Line
	2100 1400 2050 1400
Wire Wire Line
	7000 5200 7000 5950
Wire Wire Line
	5450 4400 5350 4400
Wire Wire Line
	6950 6050 7550 6050
Wire Wire Line
	7000 5950 7550 5950
Wire Wire Line
	6950 5300 6950 6050
Text Label 7550 6050 2    50   ~ 0
SWD_CLK
Text Label 7550 5950 2    50   ~ 0
SWD_IO
Text Label 3200 1750 2    50   ~ 0
SWD_CLK
Text Label 3200 1650 2    50   ~ 0
SWD_IO
Text Label 3200 1850 2    50   ~ 0
RESET
Text Label 7500 3100 2    50   ~ 0
RESET
$Comp
L Device:C C6
U 1 1 5FC5C576
P 6500 2000
F 0 "C6" H 6615 2046 50  0000 L CNN
F 1 "C" H 6615 1955 50  0000 L CNN
F 2 "Capacitor_SMD:C_0603_1608Metric" H 6538 1850 50  0001 C CNN
F 3 "~" H 6500 2000 50  0001 C CNN
	1    6500 2000
	-1   0    0    -1  
$EndComp
$Comp
L power:GND #PWR0101
U 1 1 5FC5C580
P 6500 2150
F 0 "#PWR0101" H 6500 1900 50  0001 C CNN
F 1 "GND" H 6505 1977 50  0000 C CNN
F 2 "" H 6500 2150 50  0001 C CNN
F 3 "" H 6500 2150 50  0001 C CNN
	1    6500 2150
	-1   0    0    -1  
$EndComp
$Comp
L STM32G030CT:STM32G030C6T6 U3
U 1 1 5F6E6EC9
P 6150 3150
F 0 "U3" H 6150 3865 50  0000 C CNN
F 1 "STM32G030C6T6" H 6150 3774 50  0000 C CNN
F 2 "Package_QFP:LQFP-48_7x7mm_P0.5mm" H 6150 3150 50  0001 C CNN
F 3 "" H 6150 3150 50  0001 C CNN
	1    6150 3150
	-1   0    0    -1  
$EndComp
Wire Wire Line
	6950 5300 6850 5300
Wire Wire Line
	6850 5200 7000 5200
Wire Wire Line
	7500 3100 6850 3100
Wire Wire Line
	7500 2500 7500 3100
Wire Wire Line
	6850 2700 7000 2700
Wire Wire Line
	7000 2700 7000 1850
Connection ~ 7000 1850
Wire Wire Line
	7000 1850 6850 1850
Wire Wire Line
	7100 1850 7100 2800
Wire Wire Line
	7100 2800 6850 2800
Connection ~ 7100 1850
Wire Wire Line
	7100 1850 7000 1850
Wire Wire Line
	6850 2900 7200 2900
Wire Wire Line
	7200 2900 7200 1850
Connection ~ 7200 1850
Wire Wire Line
	7200 1850 7100 1850
Wire Wire Line
	5400 5600 5450 5600
NoConn ~ 6850 3300
NoConn ~ 6850 3400
Wire Wire Line
	6850 4700 7800 4700
Wire Wire Line
	6850 4800 7800 4800
Wire Wire Line
	6850 4900 7800 4900
Wire Wire Line
	6850 5400 7800 5400
Wire Wire Line
	6950 6050 6950 6150
Wire Wire Line
	6950 6150 7050 6150
Connection ~ 6950 6050
$Comp
L power:+3V3 #PWR0102
U 1 1 5F9B5EC0
P 4350 2050
F 0 "#PWR0102" H 4350 1900 50  0001 C CNN
F 1 "+3V3" H 4365 2223 50  0000 C CNN
F 2 "" H 4350 2050 50  0001 C CNN
F 3 "" H 4350 2050 50  0001 C CNN
	1    4350 2050
	-1   0    0    -1  
$EndComp
Wire Wire Line
	4350 3500 5450 3500
NoConn ~ 5450 3600
NoConn ~ 5450 3700
Connection ~ 7500 3100
Wire Wire Line
	6500 1850 6850 1850
$Comp
L Device:C C7
U 1 1 5FAA6FB6
P 6150 2000
F 0 "C7" H 6265 2046 50  0000 L CNN
F 1 "C" H 6265 1955 50  0000 L CNN
F 2 "Capacitor_SMD:C_0603_1608Metric" H 6188 1850 50  0001 C CNN
F 3 "~" H 6150 2000 50  0001 C CNN
	1    6150 2000
	-1   0    0    -1  
$EndComp
$Comp
L power:GND #PWR024
U 1 1 5FAA6FC0
P 6150 2150
F 0 "#PWR024" H 6150 1900 50  0001 C CNN
F 1 "GND" H 6155 1977 50  0000 C CNN
F 2 "" H 6150 2150 50  0001 C CNN
F 3 "" H 6150 2150 50  0001 C CNN
	1    6150 2150
	-1   0    0    -1  
$EndComp
Wire Wire Line
	6150 1850 6500 1850
Connection ~ 6500 1850
$Comp
L Switch:SW_SPDT SW1
U 1 1 5F69200B
P 3000 950
F 0 "SW1" H 3000 625 50  0000 C CNN
F 1 "SW_SPDT" H 3000 716 50  0000 C CNN
F 2 "pcb:EG2211" H 3000 950 50  0001 C CNN
F 3 "~" H 3000 950 50  0001 C CNN
	1    3000 950 
	-1   0    0    1   
$EndComp
$EndSCHEMATC
