M48
; DRILL file {KiCad 5.1.6-c6e7f7d~87~ubuntu20.04.1} date Sun Sep 20 18:40:55 2020
; FORMAT={-:-/ absolute / metric / decimal}
; #@! TF.CreationDate,2020-09-20T18:40:55+02:00
; #@! TF.GenerationSoftware,Kicad,Pcbnew,5.1.6-c6e7f7d~87~ubuntu20.04.1
; #@! TF.FileFunction,Plated,1,2,PTH
FMAT,2
METRIC
T1C0.400
T2C0.800
T3C1.000
T4C1.200
T5C1.800
%
G90
G05
T1
X122.45Y-85.375
X125.6Y-87.425
X126.7Y-85.375
X129.85Y-87.425
X130.35Y-85.35
X134.1Y-87.4
X135.225Y-85.375
X137.175Y-106.95
X138.325Y-87.425
X139.8Y-102.9
X140.2Y-103.6
X142.345Y-105.55
X145.3Y-101.55
X146.3Y-101.55
X147.85Y-106.45
X148.45Y-109.85
X148.55Y-105.643
X149.05Y-110.85
X149.15Y-94.975
X149.25Y-92.6
X149.25Y-104.7
X149.562Y-95.886
X149.95Y-96.841
X150.45Y-97.742
X151.0Y-92.6
X153.0Y-92.6
X155.553Y-105.91
X156.21Y-105.156
X156.718Y-101.525
X156.979Y-100.56
X159.175Y-85.425
X159.975Y-87.4
X160.357Y-102.98
X163.425Y-85.425
X164.225Y-87.425
X164.655Y-110.236
X167.1Y-77.0
X168.0Y-97.0
X168.0Y-99.95
X168.125Y-85.475
X168.5Y-87.425
X168.656Y-108.712
X169.037Y-110.363
X170.1Y-78.55
X170.914Y-112.8
X170.914Y-113.7
X170.914Y-114.6
X170.914Y-115.5
X171.925Y-85.425
X172.2Y-75.45
X172.212Y-106.617
X174.1Y-123.025
X174.125Y-133.25
X174.95Y-76.0
X175.157Y-82.765
X175.958Y-82.042
X176.022Y-97.028
X176.768Y-97.79
X177.2Y-133.275
X177.3Y-123.0
T2
X174.133Y-113.215
X174.133Y-115.215
X174.133Y-117.215
X176.133Y-113.215
X176.133Y-115.215
X176.133Y-117.215
T3
X129.0Y-80.5
X129.0Y-127.0
X131.54Y-80.5
X131.54Y-127.0
X134.08Y-80.5
X134.08Y-127.0
X136.62Y-80.5
X136.62Y-127.0
X139.16Y-80.5
X139.16Y-127.0
X141.7Y-80.5
X141.7Y-127.0
X144.24Y-80.5
X144.24Y-127.0
X146.78Y-80.5
X146.78Y-127.0
X149.32Y-80.5
X149.32Y-127.0
X151.86Y-80.5
X151.86Y-127.0
X154.4Y-80.5
X154.4Y-127.0
X156.94Y-80.5
X156.94Y-127.0
X159.48Y-80.5
X159.48Y-127.0
X162.02Y-80.5
X162.02Y-127.0
X164.56Y-80.5
X164.56Y-127.0
X167.1Y-80.5
X167.1Y-127.0
T4
X175.133Y-110.415
X175.133Y-120.015
T5
X121.031Y-106.045
X128.651Y-106.045
X162.179Y-106.045
X169.799Y-106.045
X121.158Y-118.999
X128.778Y-118.999
X162.306Y-118.999
X169.926Y-118.999
X121.158Y-93.091
X128.778Y-93.091
X162.306Y-93.091
X169.926Y-93.091
T0
M30
